{
	"$schema": "http://json.schemastore.org/template",
	"author": "KamiSama",
	"classifications": [ "Common", "Code" ],
	"identity": "KamiSama.Projects.BoundedContext",
	"name": "Bounded Context",
	"description": "KamiSama Bounded Context Project",
	"shortName": "kamisama-boundedcontext",
	"defaultName": "Example.BoundedContext",
	"tags": {
		"language": "C#",
		"type": "project"
	},
	"sourceName": "Example.BoundedContext",
	"symbols": {
		"BoundedContext": {
			"type": "parameter",
			"datatype": "text",
			"defaultValue": "BoundedContext",
			"displayName": "Bounded Context Name",
			"description": "the name of the context used in the project",
			"replaces": "BoundedContext",
			"fileRename": "BoundedContext",
			"isRequired": true
		},
		"AddSamples": {
			"type": "parameter",
			"dataType": "bool",
			"defaultValue": "false",
			"displayName": "Sample Files",
			"description": "adds sample files to the project"
		},
		"UseSqlite": {
			"type": "parameter",
			"dataType": "bool",
			"defaultValue": "false",
			"displayName": "Supports Sqlite",
			"description": "add sqlite dependencies to the project"
		},
		"UseSqlServer": {
			"type": "parameter",
			"dataType": "bool",
			"defaultValue": "false",
			"displayName": "Supports SqlServer",
			"description": "add sqlserver dependencies to the project"
		},
		"UsePostgresql": {
			"type": "parameter",
			"dataType": "bool",
			"defaultValue": "false",
			"displayName": "Supports Postgresql",
			"description": "add postgresql dependencies to the project"
		},
		"UseProps": {
			"type": "parameter",
			"dataType": "bool",
			"defaultValue": "true",
			"displayName": "Use prop.xml",
			"description": "use prop.xml to unify the process of library versioning"
		}
	},
	"sources": [
		{
			"modifiers": [
				{
					"condition": "(!AddSamples)",
					"exclude": [
						"Entities/**",
						"Features/**",
						"Repositories/Configurations/**",
						"Repositories/Abstractions/**",
						"Repositories/Implementations/**"
					]
				},
				{
					"condition": "(!UseSqlServer)",
					"exclude": [
						"Repositories/Database/SqlServer/**"
					]
				},
				{
					"condition": "(!UseSqlite)",
					"exclude": [
						"Repositories/Database/Sqlite/**"
					]
				},
				{
					"condition": "(!UsePostgresql)",
					"exclude": [
						"Repositories/Database/Postgresql/**"
					]
				}
			]
		}
	]
}
